[gd_resource type="GradientTexture" load_steps=2 format=2]

[sub_resource type="Gradient" id=1]

offsets = PoolRealArray( 0, 0.3, 0.7, 1 )
colors = PoolColorArray( 0.00784314, 0.00784314, 0.00784314, 0, 0.54902, 0.54902, 0.54902, 1, 0.54902, 0.54902, 0.54902, 1, 0, 0, 0, 0 )
_sections_unfolded = [ "colors", "offsets" ]

[resource]

flags = 4
gradient = SubResource( 1 )
width = 2048
_sections_unfolded = [ "gradient" ]

